\relax 
\providecommand\hyper@newdestlabel[2]{}
\providecommand\HyperFirstAtBeginDocument{\AtBeginDocument}
\HyperFirstAtBeginDocument{\ifx\hyper@anchor\@undefined
\global\let\oldnewlabel\newlabel
\gdef\newlabel#1#2{\newlabelxx{#1}#2}
\gdef\newlabelxx#1#2#3#4#5#6{\oldnewlabel{#1}{{#2}{#3}}}
\AtEndDocument{\ifx\hyper@anchor\@undefined
\let\newlabel\oldnewlabel
\fi}
\fi}
\global\let\hyper@last\relax 
\gdef\HyperFirstAtBeginDocument#1{#1}
\providecommand\HyField@AuxAddToFields[1]{}
\providecommand\HyField@AuxAddToCoFields[2]{}
\citation{NIST_ASD}
\citation{NIST_ASD}
\citation{NIST_ASD}
\newlabel{FirstPage}{{}{1}{}{Doc-Start}{}}
\@writefile{toc}{\contentsline {title}{Thermal Treatments and Analysis by Laser}{1}{section*.1}\protected@file@percent }
\@writefile{toc}{\contentsline {section}{\numberline {I}Introduciton}{1}{section*.2}\protected@file@percent }
\@writefile{toc}{\contentsline {section}{\numberline {II}Reference Aluminium}{1}{section*.3}\protected@file@percent }
\@writefile{toc}{\contentsline {subsection}{\numberline {A}Peaks and Full Width Half Maximum}{1}{section*.4}\protected@file@percent }
\@writefile{lof}{\contentsline {figure}{\numberline {1}{\ignorespaces Plot of the reference Aluminium with peaks and full width half maximum values}}{1}{figure.1}\protected@file@percent }
\newlabel{fig:fwhm}{{1}{1}{Plot of the reference Aluminium with peaks and full width half maximum values}{figure.1}{}}
\@writefile{lof}{\contentsline {figure}{\numberline {2}{\ignorespaces Zoom on a section of the plot}}{1}{figure.2}\protected@file@percent }
\newlabel{fig:fwhm_zoom}{{2}{1}{Zoom on a section of the plot}{figure.2}{}}
\@writefile{toc}{\contentsline {subsection}{\numberline {B}Comparison with database}{1}{section*.5}\protected@file@percent }
\@writefile{lot}{\contentsline {table}{\numberline {I}{\ignorespaces Comparison of NIST LINES, NIST LIBS, and Experimental values.}}{1}{table.1}\protected@file@percent }
\newlabel{tab:comparison}{{I}{1}{Comparison of NIST LINES, NIST LIBS, and Experimental values}{table.1}{}}
\@writefile{toc}{\contentsline {section}{\numberline {III}Cosmetics}{1}{section*.6}\protected@file@percent }
\citation{Singh20201}
\citation{Li2023}
\citation{Abrar2018}
\@writefile{lof}{\contentsline {figure}{\numberline {3}{\ignorespaces Plot of different samples.}}{2}{figure.3}\protected@file@percent }
\newlabel{fig:samples}{{3}{2}{Plot of different samples}{figure.3}{}}
\@writefile{toc}{\contentsline {subsection}{\numberline {A}Identification of Alumium in the samples}{2}{section*.7}\protected@file@percent }
\@writefile{lof}{\contentsline {figure}{\numberline {4}{\ignorespaces Zoomed plot 1 for sample 1}}{2}{figure.4}\protected@file@percent }
\newlabel{fig:zoom1}{{4}{2}{Zoomed plot 1 for sample 1}{figure.4}{}}
\@writefile{lof}{\contentsline {figure}{\numberline {5}{\ignorespaces Zoomed plot 2 for sample 1}}{2}{figure.5}\protected@file@percent }
\newlabel{fig:zoom2}{{5}{2}{Zoomed plot 2 for sample 1}{figure.5}{}}
\@writefile{lof}{\contentsline {figure}{\numberline {6}{\ignorespaces Zoomed plot 3 for sample 1}}{2}{figure.6}\protected@file@percent }
\newlabel{fig:zoom3}{{6}{2}{Zoomed plot 3 for sample 1}{figure.6}{}}
\citation{Chen201523}
\citation{Liu20232571}
\citation{Yokogawa2018}
\citation{Chen201523}
\citation{Liu20232571}
\citation{Liu20232571}
\citation{Yokogawa2018}
\citation{Chen201523}
\citation{Chen201523}
\@writefile{toc}{\contentsline {subsection}{\numberline {B}Influence of Moisture on Laser-Induced Breakdown Spectroscopy (LIBS)}{3}{section*.8}\protected@file@percent }
\@writefile{lof}{\contentsline {figure}{\numberline {7}{\ignorespaces Comparison between dry and not dry samples with pulse of 36 mJ}}{3}{figure.7}\protected@file@percent }
\newlabel{fig:dry12}{{7}{3}{Comparison between dry and not dry samples with pulse of 36 mJ}{figure.7}{}}
\@writefile{lof}{\contentsline {figure}{\numberline {8}{\ignorespaces Comparison between dry and not dry samples with pulse of 55 mJ}}{3}{figure.8}\protected@file@percent }
\newlabel{fig:dry34}{{8}{3}{Comparison between dry and not dry samples with pulse of 55 mJ}{figure.8}{}}
\@writefile{toc}{\contentsline {section}{\numberline {IV}Analysis of Gels}{3}{section*.9}\protected@file@percent }
\@writefile{lof}{\contentsline {figure}{\numberline {9}{\ignorespaces Plot of the gels data}}{3}{figure.9}\protected@file@percent }
\newlabel{fig:avantes}{{9}{3}{Plot of the gels data}{figure.9}{}}
\@writefile{toc}{\contentsline {subsection}{\numberline {A}Identification of Zn and Ni}{4}{section*.10}\protected@file@percent }
\@writefile{lof}{\contentsline {figure}{\numberline {10}{\ignorespaces Plot of the Zn/Ni and gels data}}{4}{figure.10}\protected@file@percent }
\newlabel{fig:avantes_Zn_Ni}{{10}{4}{Plot of the Zn/Ni and gels data}{figure.10}{}}
\@writefile{lof}{\contentsline {figure}{\numberline {11}{\ignorespaces Zoom on the Zn and gels data}}{4}{figure.11}\protected@file@percent }
\newlabel{fig:avantes_Zn_zoom1}{{11}{4}{Zoom on the Zn and gels data}{figure.11}{}}
\@writefile{lof}{\contentsline {figure}{\numberline {12}{\ignorespaces Zoom on the Ni and gels data}}{4}{figure.12}\protected@file@percent }
\newlabel{fig:avantes_Ni_zoom1}{{12}{4}{Zoom on the Ni and gels data}{figure.12}{}}
\@writefile{toc}{\contentsline {subsection}{\numberline {B}Identificaty of Na and Cl}{4}{section*.11}\protected@file@percent }
\@writefile{lof}{\contentsline {figure}{\numberline {13}{\ignorespaces Plot of the gels data with Na and Ca data lines}}{4}{figure.13}\protected@file@percent }
\newlabel{fig:Na_Ca}{{13}{4}{Plot of the gels data with Na and Ca data lines}{figure.13}{}}
\@writefile{lof}{\contentsline {figure}{\numberline {14}{\ignorespaces Zoom on the Ca and gels data}}{4}{figure.14}\protected@file@percent }
\newlabel{fig:NaCa1}{{14}{4}{Zoom on the Ca and gels data}{figure.14}{}}
\@writefile{lof}{\contentsline {figure}{\numberline {15}{\ignorespaces Zoom on the Na and gels data}}{4}{figure.15}\protected@file@percent }
\newlabel{fig:NaCa5}{{15}{4}{Zoom on the Na and gels data}{figure.15}{}}
\bibdata{lasersNotes,references.bib}
\bibcite{NIST_ASD}{{1}{2023}{{Kramida\ \emph  {et~al.}}}{{Kramida, Ralchenko, Reader,\ and\ Team}}}
\bibcite{Singh20201}{{2}{2020}{{Singh\ and\ Thakur}}{{}}}
\bibcite{Li2023}{{3}{2023}{{Li\ \emph  {et~al.}}}{{Li, Lu,\ and\ Jiang}}}
\bibcite{Abrar2018}{{4}{2018}{{Abrar\ \emph  {et~al.}}}{{Abrar, Iqbal, Fahad, Andleeb, Farooq,\ and\ Afsheen}}}
\bibcite{Chen201523}{{5}{2015}{{Chen\ \emph  {et~al.}}}{{Chen, Yuan, Hou, Wang,\ and\ Wang}}}
\@writefile{toc}{\contentsline {subsection}{\numberline {C}Identification of Br and I}{5}{section*.12}\protected@file@percent }
\@writefile{lof}{\contentsline {figure}{\numberline {16}{\ignorespaces Plot of the gels data with Br and I lines}}{5}{figure.16}\protected@file@percent }
\newlabel{fig:BrI}{{16}{5}{Plot of the gels data with Br and I lines}{figure.16}{}}
\@writefile{lof}{\contentsline {figure}{\numberline {17}{\ignorespaces Zoom on the Ionide and gels data}}{5}{figure.17}\protected@file@percent }
\newlabel{fig:BrI1}{{17}{5}{Zoom on the Ionide and gels data}{figure.17}{}}
\@writefile{lof}{\contentsline {figure}{\numberline {18}{\ignorespaces Zoom on the Bromide and gels data}}{5}{figure.18}\protected@file@percent }
\newlabel{fig:BrI2}{{18}{5}{Zoom on the Bromide and gels data}{figure.18}{}}
\@writefile{toc}{\contentsline {section}{\numberline {V}Conclusion}{5}{section*.13}\protected@file@percent }
\@writefile{toc}{\contentsline {section}{\numberline {}References}{5}{section*.14}\protected@file@percent }
\bibcite{Liu20232571}{{6}{2023}{{Liu\ \emph  {et~al.}}}{{Liu, Hou,\ and\ Wang}}}
\bibcite{Yokogawa2018}{{7}{2018}{{Yokogawa\ \emph  {et~al.}}}{{Yokogawa, Takeuchi, Murakami, Usuda, Yonenaga,\ and\ Ogura}}}
\newlabel{LastBibItem}{{7}{6}{}{section*.14}{}}
\@writefile{toc}{\appendix }
\@writefile{toc}{\contentsline {section}{\numberline {A}Reference Aluminium}{7}{section*.15}\protected@file@percent }
\@writefile{lof}{\contentsline {figure}{\numberline {19}{\ignorespaces Plot of reference Al I from the LIBS module}}{7}{figure.19}\protected@file@percent }
\@writefile{lof}{\contentsline {figure}{\numberline {20}{\ignorespaces Plot of reference Al II from the LIBS module}}{7}{figure.20}\protected@file@percent }
\@writefile{lof}{\contentsline {figure}{\numberline {21}{\ignorespaces Plot of reference Al III from the LIBS module}}{7}{figure.21}\protected@file@percent }
\@writefile{toc}{\contentsline {section}{\numberline {B}Cosmetics}{7}{section*.16}\protected@file@percent }
\@writefile{lof}{\contentsline {figure}{\numberline {22}{\ignorespaces Zoomed Plot 1: Sample 3 (306-312)}}{7}{figure.22}\protected@file@percent }
\@writefile{lof}{\contentsline {figure}{\numberline {23}{\ignorespaces Zoomed Plot 2: Sample 3 (391-397)}}{7}{figure.23}\protected@file@percent }
\@writefile{lof}{\contentsline {figure}{\numberline {24}{\ignorespaces Zoomed Plot 3: Sample 3 (393-399)}}{7}{figure.24}\protected@file@percent }
\@writefile{lof}{\contentsline {figure}{\numberline {25}{\ignorespaces Zoomed Plot 1: Sample 2 (306-312)}}{8}{figure.25}\protected@file@percent }
\@writefile{lof}{\contentsline {figure}{\numberline {26}{\ignorespaces Zoomed Plot 1: Sample 4 (306-312)}}{8}{figure.26}\protected@file@percent }
\@writefile{lof}{\contentsline {figure}{\numberline {27}{\ignorespaces Zoomed Plot 2: Sample 2 (391-397)}}{8}{figure.27}\protected@file@percent }
\@writefile{lof}{\contentsline {figure}{\numberline {28}{\ignorespaces Zoomed Plot 2: Sample 4 (391-397)}}{8}{figure.28}\protected@file@percent }
\@writefile{lof}{\contentsline {figure}{\numberline {29}{\ignorespaces Zoomed Plot 3: Sample 2 (393-399)}}{8}{figure.29}\protected@file@percent }
\@writefile{lof}{\contentsline {figure}{\numberline {30}{\ignorespaces Zoomed Plot 3: Sample 4 (393-399)}}{8}{figure.30}\protected@file@percent }
\@writefile{toc}{\contentsline {section}{\numberline {C}Analysis of Gels}{9}{section*.17}\protected@file@percent }
\@writefile{lof}{\contentsline {figure}{\numberline {31}{\ignorespaces Zoom on the Zn and gels data}}{9}{figure.31}\protected@file@percent }
\newlabel{fig:avantes_Zn_zoom2}{{31}{9}{Zoom on the Zn and gels data}{figure.31}{}}
\@writefile{lof}{\contentsline {figure}{\numberline {32}{\ignorespaces Zoom on the Zn and gels data}}{9}{figure.32}\protected@file@percent }
\newlabel{fig:avantes_Zn_zoom3}{{32}{9}{Zoom on the Zn and gels data}{figure.32}{}}
\@writefile{lof}{\contentsline {figure}{\numberline {33}{\ignorespaces Zoom on the Zn and gels data}}{9}{figure.33}\protected@file@percent }
\newlabel{fig:avantes_Zn_zoom4}{{33}{9}{Zoom on the Zn and gels data}{figure.33}{}}
\@writefile{lof}{\contentsline {figure}{\numberline {34}{\ignorespaces Zoom on the Zn and gels data}}{9}{figure.34}\protected@file@percent }
\newlabel{fig:avantes_Zn_zoom5}{{34}{9}{Zoom on the Zn and gels data}{figure.34}{}}
\@writefile{lof}{\contentsline {figure}{\numberline {35}{\ignorespaces Zoom on the Ni and gels data}}{9}{figure.35}\protected@file@percent }
\newlabel{fig:avantes_Ni_zoom3}{{35}{9}{Zoom on the Ni and gels data}{figure.35}{}}
\@writefile{lof}{\contentsline {figure}{\numberline {36}{\ignorespaces Zoom on the Ni and gels data}}{9}{figure.36}\protected@file@percent }
\newlabel{fig:avantes_Ni_zoom2}{{36}{9}{Zoom on the Ni and gels data}{figure.36}{}}
\bibstyle{apsrev4-2}
\@writefile{lof}{\contentsline {figure}{\numberline {37}{\ignorespaces Zoom on the Ca and gels data}}{10}{figure.37}\protected@file@percent }
\newlabel{fig:NaCa2}{{37}{10}{Zoom on the Ca and gels data}{figure.37}{}}
\@writefile{lof}{\contentsline {figure}{\numberline {38}{\ignorespaces Zoom on the Ca and gels data}}{10}{figure.38}\protected@file@percent }
\newlabel{fig:NaCa3}{{38}{10}{Zoom on the Ca and gels data}{figure.38}{}}
\@writefile{lof}{\contentsline {figure}{\numberline {39}{\ignorespaces Zoom on the Na and gels data}}{10}{figure.39}\protected@file@percent }
\newlabel{fig:NaCa4}{{39}{10}{Zoom on the Na and gels data}{figure.39}{}}
\newlabel{LastPage}{{}{10}{}{}{}}
\gdef \@abspage@last{10}
