Wavelength (nm),I I (2.7e-01)
204.92,1.622e-8
204.97,2.828e-7
205.02,4.384e-6
205.07,6.042e-5
205.12,7.403e-4
205.17,8.064e-3
205.22,7.808e-2
205.27,6.722e-1
205.32,5.145e+0
205.37,3.500e+1
205.42,2.117e+2
205.47,1.139e+3
205.52,5.443e+3
205.57,2.313e+4
205.62,8.741e+4
205.67,2.936e+5
205.72,8.768e+5
205.77,2.328e+6
205.82,5.494e+6
205.87,1.153e+7
205.92,2.151e+7
205.97,3.566e+7
206.02,5.258e+7
206.07,6.892e+7
206.12,8.031e+7
206.17,8.319e+7
206.22,7.661e+7
206.27,6.273e+7
206.32,4.566e+7
206.37,2.955e+7
206.42,1.700e+7
206.47,8.693e+6
206.52,3.952e+6
206.57,1.598e+6
206.62,5.741e+5
206.67,1.834e+5
206.72,5.209e+4
206.77,1.315e+4
206.82,2.952e+3
206.87,5.892e+2
206.92,1.045e+2
206.97,1.649e+1
207.02,2.312e+0
207.07,2.882e-1
207.12,3.194e-2
207.17,3.146e-3
207.22,2.756e-4
207.27,2.146e-5
207.32,1.486e-6
207.37,9.143e-8
207.42,5.002e-9
